{
  "manifestVersion": "3.2",
  "admin": {
    "address": "0x0165878A594ca255338adfa4d48449f69242Eb8F",
    "txHash": "0x08c784ef4a41223f4ee7a6b0038c508c62e5ac8c8509f8abbf765147f4f2a5c7"
  },
  "proxies": [
    {
      "address": "0xc3e53F4d16Ae77Db1c982e75a937B9f60FE63690",
      "txHash": "0x932a2d310f99d5c1f980fd5f365d1fa2a5fcb19e23db129f4554205f530a5669",
      "kind": "uups"
    },
    {
      "address": "0x70e0bA845a1A0F2DA3359C97E0285013525FFC49",
      "txHash": "0x6c6eb8dd0a0f2e9409ba472d5d14b48f00ab9c8fc7f0ded2db8d234043ef6891",
      "kind": "uups"
    },
    {
      "address": "0x4631BCAbD6dF18D94796344963cB60d44a4136b6",
      "txHash": "0x55d222a7280712f047af1ba4aee098e4e248bc2d4e0026bbe6b6deb56782fc1c",
      "kind": "uups"
    },
    {
      "address": "0x86A2EE8FAf9A840F7a2c64CA3d51209F9A02081D",
      "txHash": "0x95eb242781d7f72948e8bd6a44efcd5a7017347380729b2ca1ae08df6249b1d6",
      "kind": "transparent"
    },
    {
      "address": "0x720472c8ce72c2A2D711333e064ABD3E6BbEAdd3",
      "txHash": "0x365c9a97cf30dd8787aeb8395e83938186d000b906261fa91e93deffa1cb8686",
      "kind": "transparent"
    },
    {
      "address": "0x07882Ae1ecB7429a84f1D53048d35c4bB2056877",
      "txHash": "0xfaa4f190daf2bc545903676c4f5837e5799429d2bb13ba3ff4d3d6d0d3c78117",
      "kind": "uups"
    },
    {
      "address": "0x22753E4264FDDc6181dc7cce468904A80a363E44",
      "txHash": "0x90fce4eff49cec89ece85b4c306cc1e6f86428cd30b94cf87482fe21bdb99b20",
      "kind": "transparent"
    },
    {
      "address": "0xb9bEECD1A582768711dE1EE7B0A1d582D9d72a6C",
      "txHash": "0xea828d5a43438a8c9b1805adbc23cd99cefabf935572bfc49b75fc0d722ef7f2",
      "kind": "transparent"
    },
    {
      "address": "0xB06c856C8eaBd1d8321b687E188204C1018BC4E5",
      "txHash": "0xc73b7820b84a4d762f399e5b7566f054d235dd4bec493fa6b6f4ddf68f92222f",
      "kind": "uups"
    },
    {
      "address": "0xc9952Fc93Fa9bE383ccB39008c786b9f94eAc95d",
      "txHash": "0x41495aacf2da3f3a4f5865b9097183f7e5336f81b965030c3c6ccbfbc733930e",
      "kind": "transparent"
    },
    {
      "address": "0xC1e0A9DB9eA830c52603798481045688c8AE99C2",
      "txHash": "0xe9ddd1629a255843d4d8bd4f8a54337fc0010c2b9e1cfa8912aff3ebe5eca0de",
      "kind": "uups"
    },
    {
      "address": "0x683d9CDD3239E0e01E8dC6315fA50AD92aB71D2d",
      "txHash": "0xd6377060fe68c5f2aea1ff263c777c82def6974dbce394cfe2e1c705db191f2c",
      "kind": "transparent"
    },
    {
      "address": "0x610178dA211FEF7D417bC0e6FeD39F05609AD788",
      "txHash": "0x55551d2cf491c34913432ad02647dd08b425b46f1471f156d20730aea937dd2b",
      "kind": "uups"
    },
    {
      "address": "0xcbEAF3BDe82155F56486Fb5a1072cb8baAf547cc",
      "txHash": "0x3b76e95d3797998acf1ed18e3b3ccdc6aff447dbbb926f17197a90f4664cc438",
      "kind": "transparent"
    },
    {
      "address": "0x38a024C0b412B9d1db8BC398140D00F5Af3093D4",
      "txHash": "0xf08d4b5706b66b250ad186c44404a927643118897bfb7faa7dffa89da251f8fb",
      "kind": "transparent"
    },
    {
      "address": "0x9BcC604D4381C5b0Ad12Ff3Bf32bEdE063416BC7",
      "txHash": "0xfa2456f0365ea9ef75837da429e069c7e744a86d80ddf6caf13bffe619af2558",
      "kind": "transparent"
    },
    {
      "address": "0x359570B3a0437805D0a71457D61AD26a28cAC9A2",
      "txHash": "0x86da6ddc143d858b14ab34f33465841e09d2051cada707072e47e04d04b13313",
      "kind": "transparent"
    },
    {
      "address": "0x162700d1613DfEC978032A909DE02643bC55df1A",
      "txHash": "0xa4da990ad82244afbcbd2f9c5b1dc172d995607093357f2cd8e9227809f4a96c",
      "kind": "uups"
    },
    {
      "address": "0x4C2F7092C2aE51D986bEFEe378e50BD4dB99C901",
      "txHash": "0xcf65928470291d0e5ae3a025f34ace7e65bfaf1bfefdd9148d3f1bd839fc9eab",
      "kind": "uups"
    },
    {
      "address": "0x7A9Ec1d04904907De0ED7b6839CcdD59c3716AC9",
      "txHash": "0x8b50a5e5a36fbfc7f553aaeda6b8ae8bedb91d1aeeaf865afd9bb3f2c7859d13",
      "kind": "transparent"
    },
    {
      "address": "0x4b6aB5F819A515382B0dEB6935D793817bB4af28",
      "txHash": "0x9ae6d8252c5cda8762afe9573fdb8ad8e0d83ddc1668e1cb8634fb8e623543af",
      "kind": "uups"
    },
    {
      "address": "0xab16A69A5a8c12C732e0DEFF4BE56A70bb64c926",
      "txHash": "0xfd988c4830f9f563a5c7bf1ee79e14fbb2e9141e42204984874484c7a40a4c42",
      "kind": "uups"
    },
    {
      "address": "0x976fcd02f7C4773dd89C309fBF55D5923B4c98a1",
      "txHash": "0xb212bfbd4a305721a30db0f1063cc32c87eb2e17f152af7d897370a783d8b896",
      "kind": "transparent"
    },
    {
      "address": "0x32EEce76C2C2e8758584A83Ee2F522D4788feA0f",
      "txHash": "0x0efcb2f26c1662358954803745c56c189d792182e7bc2c660cd6f4fc956ac7ab",
      "kind": "transparent"
    },
    {
      "address": "0xa6e99A4ED7498b3cdDCBB61a6A607a4925Faa1B7",
      "txHash": "0x3172eb3fda22ddca1eb5adeb024666b8b6777104be7bf21331ea7ab8eeb4c560",
      "kind": "transparent"
    },
    {
      "address": "0x96F3Ce39Ad2BfDCf92C0F6E2C2CAbF83874660Fc",
      "txHash": "0xd47a8a73b7a568463137dd285d80ee55022899ea6a1188b70d327614212df0d3",
      "kind": "uups"
    },
    {
      "address": "0x986aaa537b8cc170761FDAC6aC4fc7F9d8a20A8C",
      "txHash": "0x11e7f9a3d959d7ffdb6c794826a49cb1090bcdb4a8961d174c38d38075432a23",
      "kind": "transparent"
    },
    {
      "address": "0xc582Bc0317dbb0908203541971a358c44b1F3766",
      "txHash": "0x4853dff924f77f6639e490296bbfce7247502fb089b6c996ec15fe77ca19d8ce",
      "kind": "transparent"
    },
    {
      "address": "0x74Cf9087AD26D541930BaC724B7ab21bA8F00a27",
      "txHash": "0x19fbadc752c81d02ea50953cb954e34df50ec963e1d78e2802b7670f5240f411",
      "kind": "uups"
    },
    {
      "address": "0xefAB0Beb0A557E452b398035eA964948c750b2Fd",
      "txHash": "0xf35a2a254f8ce966fe63e5d023f0f54fe4b62da9c046738323570334dc7a5412",
      "kind": "transparent"
    },
    {
      "address": "0xddE78e6202518FF4936b5302cC2891ec180E8bFf",
      "txHash": "0x0dca19adc075354eb6a7515218b10e18e9bb9d5a69301c5777cb7b2b1d7e8327",
      "kind": "transparent"
    },
    {
      "address": "0x413b1AfCa96a3df5A686d8BFBF93d30688a7f7D9",
      "txHash": "0xaefd9dafce1fb118c694a74395e1d437c229114b84a32cc0400a635b2c30b129",
      "kind": "transparent"
    },
    {
      "address": "0x71089Ba41e478702e1904692385Be3972B2cBf9e",
      "txHash": "0x4ba8cbb938050c099324b0234454c62d2b9ffc3324142558308b5c4611c45e55",
      "kind": "uups"
    },
    {
      "address": "0x8F4ec854Dd12F1fe79500a1f53D0cbB30f9b6134",
      "txHash": "0x447ff41de345256fe7f08b7825aa457ebda7d0afca5d53d940a63e85fbe48257",
      "kind": "transparent"
    },
    {
      "address": "0x63fea6E447F120B8Faf85B53cdaD8348e645D80E",
      "txHash": "0x2f224bff07bf6d160087d8ad02eea468839b624ef9bd133a1d555419101bfb8b",
      "kind": "uups"
    },
    {
      "address": "0xd9140951d8aE6E5F625a02F5908535e16e3af964",
      "txHash": "0x6b24e1fc34c1f1b8cb0a4d4ada7d6c4f570930629c33594a077480f479fe1044",
      "kind": "transparent"
    },
    {
      "address": "0xFE5f411481565fbF70D8D33D992C78196E014b90",
      "txHash": "0x96923c9728ac4ff746c281b1ff3c999f2f7031838f4a61fdcf7f8a33add00269",
      "kind": "transparent"
    },
    {
      "address": "0x82EdA215Fa92B45a3a76837C65Ab862b6C7564a8",
      "txHash": "0x685cf526909c20b7f4934abfb222ecc3417f3f3ab7bfe3206bf48c409991cee4",
      "kind": "transparent"
    },
    {
      "address": "0x967AB65ef14c58bD4DcfFeaAA1ADb40a022140E5",
      "txHash": "0x44ad5f264ece00730b2365a510a11d1529734d46f2571d476ff3878008cf3b58",
      "kind": "uups"
    },
    {
      "address": "0xe1708FA6bb2844D5384613ef0846F9Bc1e8eC55E",
      "txHash": "0x43a6d06f4e6f69897778d8ec56cf66a686a283c98a0f6bf2c2c257369dcac81b",
      "kind": "transparent"
    },
    {
      "address": "0x22a9B82A6c3D2BFB68F324B2e8367f346Dd6f32a",
      "txHash": "0x3efe94056a1fc695d6dcf7a1d9db3d059bdaea578ee43f388c5861c59fe68971",
      "kind": "uups"
    },
    {
      "address": "0x172076E0166D1F9Cc711C77Adf8488051744980C",
      "txHash": "0x3b11d5d6368708fb7eb0a51e9779da6d4849cf9cef02997f188d6a5203f26e89",
      "kind": "uups"
    },
    {
      "address": "0x9A9f2CCfdE556A7E9Ff0848998Aa4a0CFD8863AE",
      "txHash": "0x0d131769e885ba464355157d8224e94edd141d18312d862feb82078f2bde0dc9",
      "kind": "uups"
    },
    {
      "address": "0xc5a5C42992dECbae36851359345FE25997F5C42d",
      "txHash": "0x1a7e376b54f8d7f056d2ae640a51b483270b732d96cf5df9212cf12e59aca073",
      "kind": "uups"
    },
    {
      "address": "0x95401dc811bb5740090279Ba06cfA8fcF6113778",
      "txHash": "0x4e0c75ddf7f038d4117df0013cd78d022e91b875b996d4ff0ccc726c0f4c0bf3",
      "kind": "uups"
    },
    {
      "address": "0x998abeb3E57409262aE5b751f60747921B33613E",
      "txHash": "0x0cfc95e99299db8034914986c30ddd5318688e375fa38b6377be1003aad699dc",
      "kind": "transparent"
    },
    {
      "address": "0x809d550fca64d94Bd9F66E60752A544199cfAC3D",
      "txHash": "0xb0a573f6ae8b0db419a2a28410f1d7ef12ae628d0d52605ace296fab9910579c",
      "kind": "uups"
    },
    {
      "address": "0x4c5859f0F772848b2D91F1D83E2Fe57935348029",
      "txHash": "0xcd80e967208d18f31362c43622fca2865ec9c33fc793a76e2c263442e4d2faf8",
      "kind": "transparent"
    },
    {
      "address": "0xc351628EB244ec633d5f21fBD6621e1a683B1181",
      "txHash": "0x3d9ba03ee9cc58450db079ded55f4a67b5a38bdc7a64ab949da1e48b8697b4aa",
      "kind": "uups"
    },
    {
      "address": "0xFD471836031dc5108809D173A067e8486B9047A3",
      "txHash": "0x15ee67b1577f63774116caa209a6ef2765a711612b2f16c873e9fec6760a15f8",
      "kind": "transparent"
    },
    {
      "address": "0x04C89607413713Ec9775E14b954286519d836FEf",
      "txHash": "0x50333d33cbb343095ccbcb0cfa697aab16ae4c216456fab1246314e3c1fbf109",
      "kind": "uups"
    },
    {
      "address": "0x4C4a2f8c81640e47606d3fd77B353E87Ba015584",
      "txHash": "0xd4bad99ec6d626e7d1436a3bed2463504cb8cfdca08124c4c0a8eae527026bb4",
      "kind": "transparent"
    },
    {
      "address": "0xf4B146FbA71F41E0592668ffbF264F1D186b2Ca8",
      "txHash": "0x0a993acb9128b9b6d970dfdb663f0d68c12e80bf7ab91804bcf0c36b5a3911a5",
      "kind": "transparent"
    },
    {
      "address": "0xA51c1fc2f0D1a1b8494Ed1FE312d7C3a78Ed91C0",
      "txHash": "0xb02e2682b939707110264736c202d1e15acad2740573d64ec313db743e0f503d",
      "kind": "transparent"
    },
    {
      "address": "0x59b670e9fA9D0A427751Af201D676719a970857b",
      "txHash": "0xf370744edc26ab9ef087ee2e9b58222a0c4304067a00cb1df982ee7c659f0e2d",
      "kind": "uups"
    },
    {
      "address": "0xb7278A61aa25c888815aFC32Ad3cC52fF24fE575",
      "txHash": "0x4cc1d12a15d4688bd16c7671e0b386d52458fb83635d7af89f7ea9f57fa21ba6",
      "kind": "uups"
    },
    {
      "address": "0xD8a5a9b31c3C0232E196d518E89Fd8bF83AcAd43",
      "txHash": "0x2f45a0fda84f050914e9e4ffcac32d8dd9a29df33b593dda62171ee6fd8d73f0",
      "kind": "uups"
    },
    {
      "address": "0xDC11f7E700A4c898AE5CAddB1082cFfa76512aDD",
      "txHash": "0x19c4c246379be98cd85ed9f2662d93684a1fb88f6d1d71fc1a9657e4986786a0",
      "kind": "transparent"
    },
    {
      "address": "0x7bc06c482DEAd17c0e297aFbC32f6e63d3846650",
      "txHash": "0x170575e8b05c24a1f270f41c0ecfdc9dbf4f98a0528a8b3e6dc122c033783069",
      "kind": "transparent"
    },
    {
      "address": "0x4A679253410272dd5232B3Ff7cF5dbB88f295319",
      "txHash": "0xaf9fb2e3879deb30e7302fea016ccd34d69ba19e47e975960abbe5f6c54b2d55",
      "kind": "uups"
    },
    {
      "address": "0x5b1869D9A4C187F2EAa108f3062412ecf0526b24",
      "txHash": "0xb0d1111cb5386fbc964201e334eb7ba5aa206104207fdf623fa891baf381e394",
      "kind": "uups"
    },
    {
      "address": "0x254dffcd3277C0b1660F6d42EFbB754edaBAbC2B",
      "txHash": "0xf0cc6082aded0fb302e3c6865bcb5f16f457483d0b1772c5f62e1af1b5c13698",
      "kind": "uups"
    },
    {
      "address": "0x9561C133DD8580860B6b7E504bC5Aa500f0f06a7",
      "txHash": "0xfaf3463993d43edff82234a02fa99cd67e1c862817f009c681e6cf729662dfd7",
      "kind": "transparent"
    },
    {
      "address": "0x68B1D87F95878fE05B998F19b66F4baba5De1aed",
      "txHash": "0x5fb5875168db21da15e046f62133ba48a3b8660d901efc500b20357856c317d0",
      "kind": "uups"
    },
    {
      "address": "0x3Aa5ebB10DC797CAC828524e59A333d0A371443c",
      "txHash": "0xe55dd2efd4f38704a374b285501c2b55c86d8760f4d81742e5827bb071cb1ab1",
      "kind": "transparent"
    },
    {
      "address": "0x67d269191c92Caf3cD7723F116c85e6E9bf55933",
      "txHash": "0x1ea22033579e8bf927f4adeb0bc91de5e52bcd113b1bce8f2d5e70f12bad89d9",
      "kind": "uups"
    },
    {
      "address": "0xE6E340D132b5f46d1e472DebcD681B2aBc16e57E",
      "txHash": "0xe1077fa9390b60bf98687dfb9d1e37468dd17bf28b80aaace920ac2145374168",
      "kind": "transparent"
    },
    {
      "address": "0x1613beB3B2C4f22Ee086B2b38C1476A3cE7f78E8",
      "txHash": "0x87703a980e01cc57a1966845b7c0249e5f6557239500fd5c9650d6c92a67f8e8",
      "kind": "transparent"
    },
    {
      "address": "0xD84379CEae14AA33C123Af12424A37803F885889",
      "txHash": "0x459dc1c047625f23dbae3e3dfdc32c9c9ee8ab5532f47abad38c3fad53ee11ff",
      "kind": "transparent"
    },
    {
      "address": "0x1c85638e118b37167e9298c2268758e058DdfDA0",
      "txHash": "0x8927a25f5ad60a9446dcfd31f9a1968cb8c6105a2c35e3dc9eaf9064e06880f2",
      "kind": "uups"
    },
    {
      "address": "0x367761085BF3C12e5DA2Df99AC6E1a824612b8fb",
      "txHash": "0x012313a67a51c80955d18fe15cc4b0fa1b5b86775322b49af0fab2cb54294a69",
      "kind": "transparent"
    },
    {
      "address": "0xc0F115A19107322cFBf1cDBC7ea011C19EbDB4F8",
      "txHash": "0xf8ddf9727990249f88fa314bbab50f0e84bcdb0bae72986910badceb6a9b6c1a",
      "kind": "uups"
    },
    {
      "address": "0xc96304e3c037f81dA488ed9dEa1D8F2a48278a75",
      "txHash": "0x11994097ebede3a4de91cad1a06af3f6883036bdee71edf2646757a3d9f5d174",
      "kind": "transparent"
    },
    {
      "address": "0x5bf5b11053e734690269C6B9D438F8C9d48F528A",
      "txHash": "0x1797ad6979583a9a9300eea3acd80cd1c7b84bb6daee538b8f2c9ffc4da43000",
      "kind": "uups"
    },
    {
      "address": "0x8A93d247134d91e0de6f96547cB0204e5BE8e5D8",
      "txHash": "0x5b18233662ec27a7cd89c0301f1c3a7d1b268f0e75c0f650d149b356e635c1ca",
      "kind": "uups"
    },
    {
      "address": "0x40918Ba7f132E0aCba2CE4de4c4baF9BD2D7D849",
      "txHash": "0x9a94658f466f64c52f46f87c972b3c63c90581ede689e2a765e20e1651dd5202",
      "kind": "transparent"
    },
    {
      "address": "0x5FeaeBfB4439F3516c74939A9D04e95AFE82C4ae",
      "txHash": "0x6f42a8ad5c968e47c94ff36d4c5e198ec16fa47cf267625fc6d82196530cff5f",
      "kind": "transparent"
    },
    {
      "address": "0xFD6F7A6a5c21A3f503EBaE7a473639974379c351",
      "txHash": "0x983f037325ecbb33b2cf0cf0fea043d727de9c28f5569b22a5137ef52047f8e3",
      "kind": "transparent"
    },
    {
      "address": "0x26B862f640357268Bd2d9E95bc81553a2Aa81D7E",
      "txHash": "0xedd1278f4c3dc153273214888ebb2bad394bb77949de49e6a451c2a1ab25bd21",
      "kind": "uups"
    },
    {
      "address": "0x071586BA1b380B00B793Cc336fe01106B0BFbE6D",
      "txHash": "0x4cddf451e8c31a2ef83b6d6d30b17ebe04f7aba51705c8b6e9f658fd1e234f46",
      "kind": "uups"
    },
    {
      "address": "0x8bEe2037448F096900Fd9affc427d38aE6CC0350",
      "txHash": "0xef25a475e5818a497bf06157cffdc8fe426fab4eeb59eb22c719d2bbaf2b062d",
      "kind": "uups"
    },
    {
      "address": "0x942ED2fa862887Dc698682cc6a86355324F0f01e",
      "txHash": "0xc380fe3669140721f47b487aaa5fbad1096655503e0a14891d24aab358833551",
      "kind": "transparent"
    },
    {
      "address": "0x0Dd99d9f56A14E9D53b2DdC62D9f0bAbe806647A",
      "txHash": "0xc05d0d968ec620afd090d2760ab2c37c2dcefe69573b44f63a53ee0276e502ac",
      "kind": "uups"
    },
    {
      "address": "0xeAd789bd8Ce8b9E94F5D0FCa99F8787c7e758817",
      "txHash": "0xf945a510a5e2e00790dd94065c20cf318f87b657c14aaceefff1cf3c7c2f1b3b",
      "kind": "transparent"
    },
    {
      "address": "0x9d4454B023096f34B160D6B654540c56A1F81688",
      "txHash": "0xc6492cc48eaf925e54f82ae50eba64dbd0138c855602b849ac5ad22e5e35dc70",
      "kind": "uups"
    },
    {
      "address": "0x1291Be112d480055DaFd8a610b7d1e203891C274",
      "txHash": "0xdbc61643d57f0f4bafc97481222a559a93cf434cbf828a9ca78dd05b0c14812d",
      "kind": "uups"
    },
    {
      "address": "0x5f3f1dBD7B74C6B46e8c44f98792A1dAf8d69154",
      "txHash": "0x1de14db0c3890c68faefd6771d3b145a60a4b041c2a76067f4912cf8664a92c7",
      "kind": "transparent"
    },
    {
      "address": "0x2bdCC0de6bE1f7D2ee689a0342D76F52E8EFABa3",
      "txHash": "0xac64a0b908520d58db93ee0a15e4c1d9485fbeafe715781b3632c1b500146f22",
      "kind": "uups"
    },
    {
      "address": "0x7969c5eD335650692Bc04293B07F5BF2e7A673C0",
      "txHash": "0x12abd4620ada76575bb53ef725ebb95549916faed74f6d895cc5f67a4593ce2c",
      "kind": "transparent"
    },
    {
      "address": "0x1429859428C0aBc9C2C47C8Ee9FBaf82cFA0F20f",
      "txHash": "0xb9a08573a5b1352981abf8a0fab1d853be96c5a559a704ce314888badef3b275",
      "kind": "uups"
    },
    {
      "address": "0xB0D4afd8879eD9F52b28595d31B441D079B2Ca07",
      "txHash": "0x3ec6352aa438f28d5c3c087cbb8d0a2ffb87a9720d30dc17b0246933c8e6f626",
      "kind": "transparent"
    },
    {
      "address": "0x922D6956C99E12DFeB3224DEA977D0939758A1Fe",
      "txHash": "0x706d3841add765b3c08634b9bd21bcd6c0d15063d1b6c3822450edeeba28b543",
      "kind": "uups"
    },
    {
      "address": "0xdbC43Ba45381e02825b14322cDdd15eC4B3164E6",
      "txHash": "0x885e7b3e28ed85e7f3c3127165e45ae8d0c44c4e4bf285af9bf058119d1ed6a3",
      "kind": "transparent"
    },
    {
      "address": "0x0355B7B8cb128fA5692729Ab3AAa199C1753f726",
      "txHash": "0x46834cacfc304611c0005e5a868d3721691d89e1e21a08413a3e885d402f4f3a",
      "kind": "uups"
    },
    {
      "address": "0x202CCe504e04bEd6fC0521238dDf04Bc9E8E15aB",
      "txHash": "0x2540f5200c83b969e72a256ce31fcce9049c98bc528fdbd56d004cdab163003f",
      "kind": "transparent"
    },
    {
      "address": "0xfbC22278A96299D91d41C453234d97b4F5Eb9B2d",
      "txHash": "0x59a48f7111b4f99a766b0845cab75dc94a460466274d8d23bce973207b0c55df",
      "kind": "uups"
    },
    {
      "address": "0xA4899D35897033b927acFCf422bc745916139776",
      "txHash": "0xdbcaf9b63af5c309fa5a3a774cf0851cdbc88491cacb92753ef0d2760eab3bb7",
      "kind": "uups"
    },
    {
      "address": "0xCace1b78160AE76398F486c8a18044da0d66d86D",
      "txHash": "0x77f3f844b4a91146b7e915f55200de3a32ee7f77936fc6bb050158dab4607446",
      "kind": "uups"
    },
    {
      "address": "0xA7c59f010700930003b33aB25a7a0679C860f29c",
      "txHash": "0xba7ee83a2495b4bf5f8602e320e263f2b75c0fb2f86fff3b3d82c19250df49f4",
      "kind": "uups"
    },
    {
      "address": "0xfaAddC93baf78e89DCf37bA67943E1bE8F37Bb8c",
      "txHash": "0x4e02dbfc28edaa7207ab36051c0a88add22d5ed35656fbc4ce30c17a94928902",
      "kind": "transparent"
    },
    {
      "address": "0xE3011A37A904aB90C8881a99BD1F6E21401f1522",
      "txHash": "0xc42ec03c4d0290b8da2daf46a21dbdee0e94467ae2d3ab8eae4cc1511adcd75f",
      "kind": "uups"
    },
    {
      "address": "0x1f10F3Ba7ACB61b2F50B9d6DdCf91a6f787C0E82",
      "txHash": "0xe0a3a02b61e45e457f5cda1b34bd8a8c0b2984aa5cff248935e7a052c63b08f2",
      "kind": "uups"
    },
    {
      "address": "0x99dBE4AEa58E518C50a1c04aE9b48C9F6354612f",
      "txHash": "0x0aff13e293b8a724e7fb190b34e335bf9d4173b032332298e95266eb28389ab9",
      "kind": "transparent"
    },
    {
      "address": "0x19cEcCd6942ad38562Ee10bAfd44776ceB67e923",
      "txHash": "0x1642c21d62a24509e9259035cab7b03f5cfbed328f945d5fd0d6182678be4caa",
      "kind": "uups"
    },
    {
      "address": "0x870526b7973b56163a6997bB7C886F5E4EA53638",
      "txHash": "0x00717a96ba6c680bf1be34a1a4a19059556745f7afb74fd75ba64078f2e0e916",
      "kind": "transparent"
    },
    {
      "address": "0xB2b580ce436E6F77A5713D80887e14788Ef49c9A",
      "txHash": "0x7f7f28337e2f90d2e33b468fe4eaa8d5cbb2988afae38c7634cb5fca51db3129",
      "kind": "uups"
    },
    {
      "address": "0x38A70c040CA5F5439ad52d0e821063b0EC0B52b6",
      "txHash": "0xf6df6bea4978872cfd7eb3e7b997628bda523a63703372b5b48b9d64aa42ec1d",
      "kind": "transparent"
    },
    {
      "address": "0x56D13Eb21a625EdA8438F55DF2C31dC3632034f5",
      "txHash": "0x225c6ef659d93e498f53797af3b599df5ba88fa36d3043cb442042591d72b687",
      "kind": "uups"
    },
    {
      "address": "0xccf1769D8713099172642EB55DDFFC0c5A444FE9",
      "txHash": "0x778e5a4b296a18ad64a725629681f03e79483806c85e1314f2602b8f25f0270b",
      "kind": "uups"
    },
    {
      "address": "0x3904b8f5b0F49cD206b7d5AABeE5D1F37eE15D8d",
      "txHash": "0x56b6394ef94a88aeac3e786f5d2c46be3cbae34fead62eaa2ceb13f77c7d259c",
      "kind": "transparent"
    },
    {
      "address": "0xD6b040736e948621c5b6E0a494473c47a6113eA8",
      "txHash": "0xfcd73ef20be42d15b73b9acf1bbfff646730b66539adc4efa5258b097c9a7336",
      "kind": "uups"
    },
    {
      "address": "0x87006e75a5B6bE9D1bbF61AC8Cd84f05D9140589",
      "txHash": "0x20512c4b44fc9663c858a4cf9d9ac8ac4dddd6e5b5c1dc00d6555a172d285cf8",
      "kind": "uups"
    },
    {
      "address": "0x547382C0D1b23f707918D3c83A77317B71Aa8470",
      "txHash": "0x9c98e69f5cfab22e8cf8d8b0fb82ffcb034a25011eb5cab25fd3d756b8635076",
      "kind": "uups"
    },
    {
      "address": "0xCBBe2A5c3A22BE749D5DDF24e9534f98951983e2",
      "txHash": "0x20466c149568ec695763213609dbf926cce03354f830e36bd211b4eb58694428",
      "kind": "transparent"
    },
    {
      "address": "0x0165878A594ca255338adfa4d48449f69242Eb8F",
      "txHash": "0x07c2bf819d55645d9aff3fb29b05a6fb805513717fb2568064170def486c5aa7",
      "kind": "transparent"
    },
    {
      "address": "0x0DCd1Bf9A1b36cE34237eEaFef220932846BCD82",
      "txHash": "0x0a1c83b44d474d303d8c98dbe27f406ac95a4dcdf0745edd66764b7bdeeffb88",
      "kind": "uups"
    },
    {
      "address": "0xa85233C63b9Ee964Add6F2cffe00Fd84eb32338f",
      "txHash": "0xa005e3bb548db51f9b0b3b8245b718024420eaad9a7c81bf03455b3d476b070b",
      "kind": "transparent"
    },
    {
      "address": "0x84eA74d481Ee0A5332c457a4d796187F6Ba67fEB",
      "txHash": "0x68486a535ac3c5dc5e7ef8b4104e010c1481f7814f1c7aba8a4a2139c392da28",
      "kind": "uups"
    },
    {
      "address": "0x4826533B4897376654Bb4d4AD88B7faFD0C98528",
      "txHash": "0x75c3f5b0cf3f98608e5c8e278e043e673886687ca0413ffec1ba6cb017b78025",
      "kind": "uups"
    },
    {
      "address": "0x99bbA657f2BbC93c02D617f8bA121cB8Fc104Acf",
      "txHash": "0x4f89938ba28ff4a70851f13fe5b4725698d1115ee8660c43a99042848a284150",
      "kind": "transparent"
    },
    {
      "address": "0x0B306BF915C4d645ff596e518fAf3F9669b97016",
      "txHash": "0x02ac56ed9333662eca1880017b4829f38d41b750e02bb9e1cc244a54b77c3201",
      "kind": "uups"
    },
    {
      "address": "0x959922bE3CAee4b8Cd9a407cc3ac1C251C2007B1",
      "txHash": "0x4dcc9c4d1bc1fb0e701abf248c6a3b87bfa090c0d487d127fb2d9fdf5e4ebb47",
      "kind": "transparent"
    },
    {
      "address": "0x7a2088a1bFc9d81c55368AE168C2C02570cB814F",
      "txHash": "0xf6eee1c807434aaaa3660ed5cd1b30a4f330c95416335e5f9d30a15f82f38190",
      "kind": "uups"
    },
    {
      "address": "0x09635F643e140090A9A8Dcd712eD6285858ceBef",
      "txHash": "0x1cacccc48053768843fe165288fd9bd7cb9d52848f13abbe604e1b50a4d4cee8",
      "kind": "transparent"
    },
    {
      "address": "0x851356ae760d987E095750cCeb3bC6014560891C",
      "txHash": "0xd9f950e1f6c767d3dd29e925e49e9a14ce0782d3fd3b7b4c071329de0ab7fb6f",
      "kind": "uups"
    },
    {
      "address": "0xf5059a5D33d5853360D16C683c16e67980206f36",
      "txHash": "0x21b2ce694e1a412d074c0743129464a0ea0c333ccf0b03499290bd265c8addea",
      "kind": "transparent"
    },
    {
      "address": "0x5eb3Bc0a489C5A8288765d2336659EbCA68FCd00",
      "txHash": "0xf5bc46fb8e783a02413c6e47e3b2658300fd52c45771247f652b857bffff6ee1",
      "kind": "uups"
    },
    {
      "address": "0x36C02dA8a0983159322a80FFE9F24b1acfF8B570",
      "txHash": "0xfd68080aaa1b04ddb7ebbf7f2d2d0abdd71eb64261777dd591e8f29add41bc91",
      "kind": "transparent"
    },
    {
      "address": "0xf953b3A269d80e3eB0F2947630Da976B896A8C5b",
      "txHash": "0xfdd8f4de9c6b79430264b34cdb2d8168b848c062b2a0807286b4d1d1ff391b8d",
      "kind": "uups"
    },
    {
      "address": "0xAA292E8611aDF267e563f334Ee42320aC96D0463",
      "txHash": "0x12196c4794480b532285332471ee91168da8f9c53737d6f8edc567a77fbe6e8e",
      "kind": "uups"
    },
    {
      "address": "0x5c74c94173F05dA1720953407cbb920F3DF9f887",
      "txHash": "0xb27be7ad82ac169ba6cb865e8e50b9eb7bbcabaca1501a3fa4ed1a8cdf7fc0af",
      "kind": "transparent"
    },
    {
      "address": "0xD5ac451B0c50B9476107823Af206eD814a2e2580",
      "txHash": "0x0de4067f34515a5140489e64c8de996986c11658cf4d0e2a26f0559b71717304",
      "kind": "uups"
    },
    {
      "address": "0xF8e31cb472bc70500f08Cd84917E5A1912Ec8397",
      "txHash": "0xd37deee899a95b22711d1154285b825e0f4600a918dee39495ad71afaf5d57f5",
      "kind": "transparent"
    },
    {
      "address": "0x276C216D241856199A83bf27b2286659e5b877D3",
      "txHash": "0x131fba5f1156a70ed0c59dd3be51e737695c7b77cfafe6b5be5f66acd2e5c931",
      "kind": "uups"
    },
    {
      "address": "0x3347B4d90ebe72BeFb30444C9966B2B990aE9FcB",
      "txHash": "0x4bceea0ed9c04ecfe73e79e8ebb4d7e470d6652096500d47000550b19402b42e",
      "kind": "transparent"
    },
    {
      "address": "0x457cCf29090fe5A24c19c1bc95F492168C0EaFdb",
      "txHash": "0x18ea70cbd9b33a4a3ee53c7fa2cf20fa7a5fdd2b80ca4d065452aa1f86459f93",
      "kind": "uups"
    },
    {
      "address": "0x525C7063E7C20997BaaE9bDa922159152D0e8417",
      "txHash": "0x4ec2e8f83a5b64c23498064e10a993132bc71bedf6e021e12b192347ec843c62",
      "kind": "transparent"
    },
    {
      "address": "0xF32D39ff9f6Aa7a7A64d7a4F00a54826Ef791a55",
      "txHash": "0x70d46df6668b8eee3498755f90933fa7c63c2860584c7fd3e3743c037cd0054e",
      "kind": "uups"
    },
    {
      "address": "0xd6e1afe5cA8D00A2EFC01B89997abE2De47fdfAf",
      "txHash": "0x17ca0b58fb7ce4c09829c64c91fcf41645d543fceae2c65d92e969c792b0badd",
      "kind": "transparent"
    },
    {
      "address": "0xD42912755319665397FF090fBB63B1a31aE87Cee",
      "txHash": "0x65536f35434026966b30dc6637caf5ddd76d4094789a6dc9b35408b424b7da29",
      "kind": "uups"
    },
    {
      "address": "0xfcDB4564c18A9134002b9771816092C9693622e3",
      "txHash": "0xff222cf6cc82179274dabcd20c2347d92f853c32f70753fe15c1bbc5c7dc2730",
      "kind": "uups"
    },
    {
      "address": "0x927b167526bAbB9be047421db732C663a0b77B11",
      "txHash": "0xa3bb5b7988871c828611b132245b004f2e6a6a9949d4698e66daa35fd57d41bb",
      "kind": "transparent"
    },
    {
      "address": "0x6C2d83262fF84cBaDb3e416D527403135D757892",
      "txHash": "0xac430cf4a326733af377df9d783e3d233397b4c546147a152197fdaf261b30ef",
      "kind": "transparent"
    },
    {
      "address": "0x4bf010f1b9beDA5450a8dD702ED602A104ff65EE",
      "txHash": "0xd78f0d9f4a29087669133212ed35312fd720a6f2145a52387479baa4019c5e26",
      "kind": "uups"
    },
    {
      "address": "0x40a42Baf86Fc821f972Ad2aC878729063CeEF403",
      "txHash": "0xec71a91ecbf20aa17ca1740eb3261a257e0e9c88ef719158fd77f96e13efa2f1",
      "kind": "transparent"
    },
    {
      "address": "0xD49a0e9A4CD5979aE36840f542D2d7f02C4817Be",
      "txHash": "0x6530bf57bf1c9da92970650f0392c40fa2098bc5acf8b7c9e60ada0fe3d4775a",
      "kind": "uups"
    },
    {
      "address": "0xe1Fd27F4390DcBE165f4D60DBF821e4B9Bb02dEd",
      "txHash": "0x02df5775017a2c8119b81d2e8b2fefe8b6fe55de92d0d827643cbcf8d1b647eb",
      "kind": "transparent"
    },
    {
      "address": "0x8bCe54ff8aB45CB075b044AE117b8fD91F9351aB",
      "txHash": "0x75eebf5e1450ec0641f8622df3ddef5a1113fe4058969614344979da9c82e09e",
      "kind": "transparent"
    },
    {
      "address": "0xA56F946D6398Dd7d9D4D9B337Cf9E0F68982ca5B",
      "txHash": "0xd62e70d3599f9d79c4fb415ea4e8701f17d0a50b38d8dc24f5ad0ff76331b957",
      "kind": "uups"
    },
    {
      "address": "0x5D42EBdBBa61412295D7b0302d6F50aC449Ddb4F",
      "txHash": "0xf0a85d6897470ab1e5da05a86b988a970b98ee3d0e8d16fd63ca223758341e6f",
      "kind": "transparent"
    },
    {
      "address": "0x045857BDEAE7C1c7252d611eB24eB55564198b4C",
      "txHash": "0x253e25547961e2e7a3a28cdea24d322f1215c6170981f2176e8489da9cba091f",
      "kind": "uups"
    },
    {
      "address": "0x2b5A4e5493d4a54E717057B127cf0C000C876f9B",
      "txHash": "0x46eb61953e415dfd46a8354a9105075463aa3eed57512b5baa50a829aa50b70d",
      "kind": "transparent"
    },
    {
      "address": "0x5133BBdfCCa3Eb4F739D599ee4eC45cBCD0E16c5",
      "txHash": "0x2274556bb9ce681329a98f2370ec3bcdc1835b707c1ee7bafd96a873201cf47e",
      "kind": "transparent"
    },
    {
      "address": "0x12Bcb546bC60fF39F1Adfc7cE4605d5Bd6a6A876",
      "txHash": "0xdab61db6511eb028a0f481b7d540ffd853396147f8e709ab4c9a894abdd332be",
      "kind": "uups"
    },
    {
      "address": "0xaC47e91215fb80462139756f43438402998E4A3a",
      "txHash": "0xf91c560d7fcc792c6111d00f002d5bb8f10c92376f5f042c630c3afc60e78e15",
      "kind": "transparent"
    },
    {
      "address": "0x54B8d8E2455946f2A5B8982283f2359812e815ce",
      "txHash": "0x803a4ae4ecc33dab7c90509cd28396a1f01bf074850a3923ed83183131aa5377",
      "kind": "uups"
    },
    {
      "address": "0xf090f16dEc8b6D24082Edd25B1C8D26f2bC86128",
      "txHash": "0x15f44fafadc210b26a03297aef7456f5a9c51b90bd1e30b5521421c30f4dcd96",
      "kind": "transparent"
    },
    {
      "address": "0xe70f935c32dA4dB13e7876795f1e175465e6458e",
      "txHash": "0xa5b1626090f1311aa3dcbdfa4d4005f63b120e4e47963c3fc5b8bf3e9ad304d9",
      "kind": "uups"
    },
    {
      "address": "0x3C15538ED063e688c8DF3d571Cb7a0062d2fB18D",
      "txHash": "0xb23eefa0362eb7189a6630f01233b868908b6dc16c03b901c5169e3b60e9421d",
      "kind": "transparent"
    },
    {
      "address": "0x2625760C4A8e8101801D3a48eE64B2bEA42f1E96",
      "txHash": "0x52f4e9f89145bc7942c59a1db3f426a82ccdfd505fc4b3129523aa8b72356a0d",
      "kind": "transparent"
    },
    {
      "address": "0x7B4f352Cd40114f12e82fC675b5BA8C7582FC513",
      "txHash": "0x2f83bcd3308134853fa1a8ef582d5a360cec09e22d6a8f7a7375f1dc46c4ea42",
      "kind": "uups"
    },
    {
      "address": "0xcE0066b1008237625dDDBE4a751827de037E53D2",
      "txHash": "0x14772d8deac809c0fd6503f889ab8fabafb9c4e4a34bd0bca8d2e02ff7ff81b8",
      "kind": "transparent"
    },
    {
      "address": "0xC7143d5bA86553C06f5730c8dC9f8187a621A8D4",
      "txHash": "0x47526f5cf0337d64de87ff0a677acd8730310de01f4b8045c2b661d7843ccf46",
      "kind": "transparent"
    },
    {
      "address": "0x70eE76691Bdd9696552AF8d4fd634b3cF79DD529",
      "txHash": "0x3767abca5633109c1ccac072b9cefe70f3358bfb0beab021588d325c90a7b42c",
      "kind": "uups"
    },
    {
      "address": "0x8B190573374637f144AC8D37375d97fd84cBD3a0",
      "txHash": "0x9d34f7d088c32b507bc5740983fc657d12cda7de1e5d73105d2f827609761fdf",
      "kind": "transparent"
    },
    {
      "address": "0xcD0048A5628B37B8f743cC2FeA18817A29e97270",
      "txHash": "0xbacd27477830d10adc752444a9b9b3b1f4066055998ba496fb2309c41c9f4408",
      "kind": "uups"
    },
    {
      "address": "0x976C214741b4657bd99DFD38a5c0E3ac5C99D903",
      "txHash": "0xb44ed8b6164cbdacacece9309fdceed78e640feb501802774684547cc9ff2432",
      "kind": "transparent"
    },
    {
      "address": "0xa722bdA6968F50778B973Ae2701e90200C564B49",
      "txHash": "0x5cba83c7cf79999defd82726fd3b10f7e73cfd7ea9a40068b3148194888ae96c",
      "kind": "uups"
    },
    {
      "address": "0xc7cDb7A2E5dDa1B7A0E792Fe1ef08ED20A6F56D4",
      "txHash": "0xa9d6d0111f24e1154312cac2f8b3ae3c479e535459644c250594ea9019393407",
      "kind": "transparent"
    },
    {
      "address": "0x871ACbEabBaf8Bed65c22ba7132beCFaBf8c27B5",
      "txHash": "0xdc65237869cc4a84e1aae0347017f7c8ccaa788c7b86173b0dc997f6ed42e861",
      "kind": "uups"
    },
    {
      "address": "0x6A59CC73e334b018C9922793d96Df84B538E6fD5",
      "txHash": "0x7036dfe153b83b09a9885a8b939cf94f841ad4a46622905289bb987011071da8",
      "kind": "transparent"
    },
    {
      "address": "0x71a0b8A2245A9770A4D887cE1E4eCc6C1d4FF28c",
      "txHash": "0x0e5a4515cea47ed25668ab7adf362d2431abca8a5f2127cc16cd42805824d863",
      "kind": "uups"
    },
    {
      "address": "0xb185E9f6531BA9877741022C92CE858cDCc5760E",
      "txHash": "0x205830f0364e84f5cc1831acff59169491cd7b26ca033b453ba540c8f3ef21d9",
      "kind": "transparent"
    },
    {
      "address": "0x3C1Cb427D20F15563aDa8C249E71db76d7183B6c",
      "txHash": "0x7ffda001704cfca4e16f28174b87be6e0a1b4f22fe3fc3a5d622e6978fd73c0b",
      "kind": "uups"
    },
    {
      "address": "0x1343248Cbd4e291C6979e70a138f4c774e902561",
      "txHash": "0xfb8393938afd2fccb6b5b0119aee2dfc997d7b0a90340ff6b7cf8693248d5059",
      "kind": "transparent"
    },
    {
      "address": "0x5e6CB7E728E1C320855587E1D9C6F7972ebdD6D5",
      "txHash": "0x46c5130b4b290aede16c24cc633556de0d3ea28bb060e4822ec9f74c44c873d5",
      "kind": "uups"
    },
    {
      "address": "0x79E8AB29Ff79805025c9462a2f2F12e9A496f81d",
      "txHash": "0x751f3c2fc4951cb310c9b5be6d608ba89ea9f417be4e7bbea086ee897e839d38",
      "kind": "transparent"
    },
    {
      "address": "0x512F7469BcC83089497506b5df64c6E246B39925",
      "txHash": "0x660d16d56efd4ee4ce077012deadf92594ebf096ecc11f0ce2417079d78f3dfe",
      "kind": "uups"
    },
    {
      "address": "0x9fD16eA9E31233279975D99D5e8Fc91dd214c7Da",
      "txHash": "0x6df3823813e6258f2c23965461d9cd3df2b0865cde1ac83bb874319e4c493f45",
      "kind": "transparent"
    },
    {
      "address": "0xe38b6847E611e942E6c80eD89aE867F522402e80",
      "txHash": "0x2e414b788420d127f78c326e6b5699395f9acb58d1b6c1b98cd5d66bd5a09e04",
      "kind": "transparent"
    },
    {
      "address": "0x975Ab64F4901Af5f0C96636deA0b9de3419D0c2F",
      "txHash": "0xc6f4ebe4a5944e2403fd3c907d42ea8f267363d6ee1922e26b8fc18ea58be00c",
      "kind": "uups"
    },
    {
      "address": "0x4593ed9CbE6003e687e5e77368534bb04b162503",
      "txHash": "0xd0cb54b83edfb49071f5c78bce15c7f20124c85c218c588e49b1db7ddcfcf3e8",
      "kind": "transparent"
    },
    {
      "address": "0x666D0c3da3dBc946D5128D06115bb4eed4595580",
      "txHash": "0x6f127367d58859abecddc1e60d2509ac32c1875a0a74ab4cf966560f22180e7a",
      "kind": "uups"
    },
    {
      "address": "0x742489F22807ebB4C36ca6cD95c3e1C044B7B6c8",
      "txHash": "0x9c34820e842cb87f055da2086c4ea579b3e0be17ce3bee45af87aa1210db6c4f",
      "kind": "transparent"
    },
    {
      "address": "0x9338CA7d556248055f5751d85cDA7aD6eF254433",
      "txHash": "0x4ea9c910c2e08aca653e7fb8fd8cc77dad739c30d9223f4ecc33a9158fd74593",
      "kind": "uups"
    },
    {
      "address": "0x9c65f85425c619A6cB6D29fF8d57ef696323d188",
      "txHash": "0x2ef33564216d6eb590463c278ec8a420420bd2e90fb07cfde4b2dc35368fa773",
      "kind": "transparent"
    },
    {
      "address": "0x9849832a1d8274aaeDb1112ad9686413461e7101",
      "txHash": "0xe3d9c60c35f181999894cd15c843a582e5b5e56eb494791654c3ef85f1552e11",
      "kind": "uups"
    },
    {
      "address": "0xa4E00CB342B36eC9fDc4B50b3d527c3643D4C49e",
      "txHash": "0xe669e797ca794793db10067c0df7c58dfa7f729ae9241e2ef2d478e5f6e515a0",
      "kind": "transparent"
    },
    {
      "address": "0xC32609C91d6B6b51D48f2611308FEf121B02041f",
      "txHash": "0xd4c3e478e956034cda898d2d484a9ef34a79d1370e89e52bfefa642b39eb7d5f",
      "kind": "uups"
    },
    {
      "address": "0x262e2b50219620226C5fB5956432A88fffd94Ba7",
      "txHash": "0xa84e66018c5db984f57fcc500ff8efe5fd7a08bb394b00269c8d927bf503b556",
      "kind": "transparent"
    },
    {
      "address": "0x2e8880cAdC08E9B438c6052F5ce3869FBd6cE513",
      "txHash": "0x6eb419762fbaa42d6053ae939b6ee935893aa6745ae4d2e5d72bcebf253afa96",
      "kind": "uups"
    },
    {
      "address": "0xb007167714e2940013EC3bb551584130B7497E22",
      "txHash": "0x5bd2205b6bcc57854a4819814463991e5313320e23a40277120041656cf6bfb1",
      "kind": "transparent"
    },
    {
      "address": "0xC976c932092ECcD8f328FfD85066C0c05ED54044",
      "txHash": "0xaa64a252789dcd7cab3b556713f5eb9555abc8788fbb5989d54e27be31d25f42",
      "kind": "uups"
    },
    {
      "address": "0x618fB9dbd2BD6eb968B4c1af36af6CB0b45310Ec",
      "txHash": "0x1755de96895328dd0ed54cd1a4fd6949491498da074ffa76506739e4e31fe7b7",
      "kind": "transparent"
    },
    {
      "address": "0x103A3b128991781EE2c8db0454cA99d67b257923",
      "txHash": "0x0e93337aba01bfdf270263dfcf0a1a34a0e89d6aaaa8bc8cc5e1b11ceff42d24",
      "kind": "uups"
    },
    {
      "address": "0xBbc18b580256A82dC0F9A86152b8B22E7C1C8005",
      "txHash": "0x02d0751416f61fd35a280732c096bf543012ec12dccb59d2597089a2a2987950",
      "kind": "transparent"
    },
    {
      "address": "0xe8D2A1E88c91DCd5433208d4152Cc4F399a7e91d",
      "txHash": "0xadcdd061efe0e1026b01ffed39e94b7f2804171ed3aee3a5b83064af538677f1",
      "kind": "uups"
    },
    {
      "address": "0x5067457698Fd6Fa1C6964e416b3f42713513B3dD",
      "txHash": "0x1f97388b6d1275feec0586b570397b34f3922ce28864790386b62dd1c1a96084",
      "kind": "uups"
    },
    {
      "address": "0x18E317A7D70d8fBf8e6E893616b52390EbBdb629",
      "txHash": "0xe0263d9489058e1fe7190ef0fb88aa48ff0000ea520498bee12c5099c08c1e80",
      "kind": "transparent"
    },
    {
      "address": "0x34B40BA116d5Dec75548a9e9A8f15411461E8c70",
      "txHash": "0xb4020fe308748e77e36b4206009b7a1c85bccb84bc16025f71225b78d6836ea6",
      "kind": "uups"
    },
    {
      "address": "0xD0141E899a65C95a556fE2B27e5982A6DE7fDD7A",
      "txHash": "0xb78b4b771b1888da019d08a7ebb7effa79ba20f04ff4355a0c96c9b9957e7e95",
      "kind": "transparent"
    },
    {
      "address": "0xffa7CA1AEEEbBc30C874d32C7e22F052BbEa0429",
      "txHash": "0xeb815f4a098125810e2a3ae65de888b4667a9f1b9dfd28c934d36e42267f4ab0",
      "kind": "uups"
    },
    {
      "address": "0x3aAde2dCD2Df6a8cAc689EE797591b2913658659",
      "txHash": "0x5a6ab78678a765948d0cf9586f358561ec8a6b62d023d1fa621336bf941802ba",
      "kind": "transparent"
    },
    {
      "address": "0xB82008565FdC7e44609fA118A4a681E92581e680",
      "txHash": "0x740e005909bcf352c0bdc648e951f3559df8c7f5993c601ab2bccf0fe1902fa5",
      "kind": "uups"
    },
    {
      "address": "0x2a810409872AfC346F9B5b26571Fd6eC42EA4849",
      "txHash": "0x78efe2a6cac40964e951faac70334cd3a80a84d505a9edffde96927799054dd1",
      "kind": "transparent"
    },
    {
      "address": "0xCA8c8688914e0F7096c920146cd0Ad85cD7Ae8b9",
      "txHash": "0x416869abd699eb514ceb70a7b28f50ec16676bd13726049bffde90308560c2ca",
      "kind": "uups"
    },
    {
      "address": "0xB0f05d25e41FbC2b52013099ED9616f1206Ae21B",
      "txHash": "0x8cb065f757ad4c871fe48cd03adfcb91d25b2036b5f745bbdc9adb1a34b83186",
      "kind": "transparent"
    },
    {
      "address": "0x01c1DeF3b91672704716159C9041Aeca392DdFfb",
      "txHash": "0xcf080e88cac7128dde6c4b8ec4a81da7d053c393d520418375b16dfbb5247100",
      "kind": "uups"
    },
    {
      "address": "0x02b0B4EFd909240FCB2Eb5FAe060dC60D112E3a4",
      "txHash": "0x3ce8a577fed3245042c6ca024a1b56559c31d86069fb61abcf2c368f5d8a80b6",
      "kind": "uups"
    },
    {
      "address": "0x638A246F0Ec8883eF68280293FFE8Cfbabe61B44",
      "txHash": "0x19aa1679b8bd6a739ce2ce1cf46c3f18c2ea5972e5152dc9110df85bc28ed9a9",
      "kind": "transparent"
    },
    {
      "address": "0x5302E909d1e93e30F05B5D6Eea766363D14F9892",
      "txHash": "0x7a653e86d22ce3af7a2333ca5f3194c6a17227a98443e815d06a948b338a4743",
      "kind": "uups"
    },
    {
      "address": "0x0ed64d01D0B4B655E410EF1441dD677B695639E7",
      "txHash": "0x2a604f127e0e28fed2b56e97705b499afd6adbd29422b889a1d47cbc142f30a8",
      "kind": "transparent"
    },
    {
      "address": "0xde2Bd2ffEA002b8E84ADeA96e5976aF664115E2c",
      "txHash": "0xbe47409683f05722f6e3313ced47bd3d655447494de03fb16662e04cc1bb768f",
      "kind": "uups"
    },
    {
      "address": "0xefc1aB2475ACb7E60499Efb171D173be19928a05",
      "txHash": "0x1abe44d31813f6b0833790b80d05d6da0ffe4a1622ed69af7b4dfe17211ceb8c",
      "kind": "transparent"
    },
    {
      "address": "0xB377a2EeD7566Ac9fCb0BA673604F9BF875e2Bab",
      "txHash": "0x90f2c373ed13bb518ec9b219e7ee4555eb94c6f2f55e092aca0d2fd4d6bc13d6",
      "kind": "uups"
    },
    {
      "address": "0x66F625B8c4c635af8b74ECe2d7eD0D58b4af3C3d",
      "txHash": "0xebd97dd1a2fa96322766236621c687efb8e9eb89060c2b304bf0bceacc96111f",
      "kind": "transparent"
    },
    {
      "address": "0xaca81583840B1bf2dDF6CDe824ada250C1936B4D",
      "txHash": "0x9c0e3ccb54d116bc639734a12a83cdb61750b08e12fd97dfeecc2f3bf602bdb5",
      "kind": "uups"
    },
    {
      "address": "0x70bDA08DBe07363968e9EE53d899dFE48560605B",
      "txHash": "0xbf483402479bd5cb8f17ed854e57195e399ce15335806a17ff5ae135d98045f7",
      "kind": "transparent"
    },
    {
      "address": "0xaB7B4c595d3cE8C85e16DA86630f2fc223B05057",
      "txHash": "0xeedfb28e3f961ecc473deb5d031740cee0c70937b3db1c1a42e71849733617eb",
      "kind": "uups"
    },
    {
      "address": "0xAD523115cd35a8d4E60B3C0953E0E0ac10418309",
      "txHash": "0x6c37595bd35548a30dd6c613237d0959aef5a9f6e7167cf7778cf148a6c4aa8b",
      "kind": "transparent"
    },
    {
      "address": "0x821f3361D454cc98b7555221A06Be563a7E2E0A6",
      "txHash": "0xeb68a40052cecd8ab6db27eee30b4011a82a3a65040bd10e2df2d45ccfd4dc66",
      "kind": "uups"
    },
    {
      "address": "0x1780bCf4103D3F501463AD3414c7f4b654bb7aFd",
      "txHash": "0x7ecefccecf8f0fd727e102da48a65d41d73d6bcb75e80f059a9ff5f5bca5e6e5",
      "kind": "transparent"
    },
    {
      "address": "0xC66AB83418C20A65C3f8e83B3d11c8C3a6097b6F",
      "txHash": "0x5cc49739a25dd7deae3f68a341b6cf92bde2a555a6bae2e8701300f6e9bfcbe3",
      "kind": "uups"
    },
    {
      "address": "0xeF31027350Be2c7439C1b0BE022d49421488b72C",
      "txHash": "0x234cb8a6fc79ca93f0240831b777023bf17f0b249963f9767bf24bff4700692a",
      "kind": "transparent"
    },
    {
      "address": "0xdFdE6B33f13de2CA1A75A6F7169f50541B14f75b",
      "txHash": "0x29ed1aab110e07f664ec4facf1145138041ffd1c97144d1ebdfbc7b269e35570",
      "kind": "uups"
    },
    {
      "address": "0xaC9fCBA56E42d5960f813B9D0387F3D3bC003338",
      "txHash": "0xddc95c239a7a798e5feaae2da41ef2858210e8cf878e10b75a86d8ef1e26699f",
      "kind": "transparent"
    },
    {
      "address": "0xE8addD62feD354203d079926a8e563BC1A7FE81e",
      "txHash": "0x4da3fff2f33b5475d37b254a2368e446361d9382fc0b1ae22c86a0f82ac7e719",
      "kind": "uups"
    },
    {
      "address": "0xe039608E695D21aB11675EBBA00261A0e750526c",
      "txHash": "0x26d10b5bb7807379066e529382e61e4094203daed532f51eea021e689c15e11d",
      "kind": "transparent"
    },
    {
      "address": "0x2Dd78Fd9B8F40659Af32eF98555B8b31bC97A351",
      "txHash": "0xced7a709671861a46567b77db5f44205c7a34dd5873c0bf3d96972b200659a11",
      "kind": "uups"
    },
    {
      "address": "0x56fC17a65ccFEC6B7ad0aDe9BD9416CB365B9BE8",
      "txHash": "0xd41ebadd413ddfcce4d7e3bbca640ec5d9486fd251bdf0b123074c5a75793f03",
      "kind": "transparent"
    },
    {
      "address": "0x139e1D41943ee15dDe4DF876f9d0E7F85e26660A",
      "txHash": "0x744ac21d968f8c5bc30e07e2b1631cab9c1d3941cc4431fa9b426ae201de3dde",
      "kind": "uups"
    },
    {
      "address": "0xAdE429ba898c34722e722415D722A70a297cE3a2",
      "txHash": "0x761b9844ff588ab05767de495a1461197eac6d71eafef3f76f2ef51cb8789ac5",
      "kind": "transparent"
    },
    {
      "address": "0x51C65cd0Cdb1A8A8b79dfc2eE965B1bA0bb8fc89",
      "txHash": "0x7fdeaa578ea8c162d65183434109e7cb14f563558115949f18a6dda0439f053c",
      "kind": "uups"
    },
    {
      "address": "0x8fC8CFB7f7362E44E472c690A6e025B80E406458",
      "txHash": "0xca3b3e9145b0a3374b2420ce95237b7bacff243c82d05da76396736cdfe0d068",
      "kind": "transparent"
    },
    {
      "address": "0xDde063eBe8E85D666AD99f731B4Dbf8C98F29708",
      "txHash": "0xb93ec79f8a38af64675ee07774234070adb1bb0e1db8d0b8b0213cd0c224c716",
      "kind": "uups"
    },
    {
      "address": "0xD5724171C2b7f0AA717a324626050BD05767e2C6",
      "txHash": "0x1c88f4ca7a6760a9ddcc8379298ba13d4f8654d0f306ac6d5a452ac846939a80",
      "kind": "transparent"
    },
    {
      "address": "0x67aD6EA566BA6B0fC52e97Bc25CE46120fdAc04c",
      "txHash": "0x1ecc52c9772bc3e7b5b57375d6b1432e3a7e8f6de956d74b2c0cd4453bb4d843",
      "kind": "uups"
    },
    {
      "address": "0x114e375B6FCC6d6fCb68c7A1d407E652C54F25FB",
      "txHash": "0xf0dd13a5aa26a70600e12a85fa3c9e9976c192202ea4522b9fc9a75801b8d310",
      "kind": "transparent"
    },
    {
      "address": "0x8D81A3DCd17030cD5F23Ac7370e4Efb10D2b3cA4",
      "txHash": "0x409acbdbcb36e679c372c24da6ac1fb0b99d8a458ea0f0ebb9e91d746ec6f299",
      "kind": "uups"
    },
    {
      "address": "0xcC4c41415fc68B2fBf70102742A83cDe435e0Ca7",
      "txHash": "0x3c49147353d5907d11898e54711e154db6a4778a147b085599751eb32cc7b354",
      "kind": "transparent"
    },
    {
      "address": "0x0aec7c174554AF8aEc3680BB58431F6618311510",
      "txHash": "0x28b28e6ca6d604746760c9a93093a1a5b909e40fa677351efe914d3cd4d5ce6e",
      "kind": "uups"
    },
    {
      "address": "0x8e264821AFa98DD104eEcfcfa7FD9f8D8B320adA",
      "txHash": "0x1e77705eb2d798ef8f7cbf5208822d3ecec3a0b453839519ab4d5e3c36666c4d",
      "kind": "transparent"
    },
    {
      "address": "0x1c9fD50dF7a4f066884b58A05D91e4b55005876A",
      "txHash": "0x4d318dbff91fe09f96605e32c8a1e9cb3267cc866e9ee0a246b52f32bbf107d7",
      "kind": "uups"
    },
    {
      "address": "0x0fe4223AD99dF788A6Dcad148eB4086E6389cEB6",
      "txHash": "0xa5ced548db6955e7b25de1782cbfefc4dcaf524cb16988a16043fa930db7d348",
      "kind": "transparent"
    },
    {
      "address": "0x9Fcca440F19c62CDF7f973eB6DDF218B15d4C71D",
      "txHash": "0xfcd0b0c24841cbc7ac22fd1a80eec1e2c45007ad95b696d769f7c1c344e0c933",
      "kind": "uups"
    },
    {
      "address": "0x01E21d7B8c39dc4C764c19b308Bd8b14B1ba139E",
      "txHash": "0x810ad3bb48a714dda2070f52c996b8c3c6e1cf6766de849472fdd78afffa879d",
      "kind": "transparent"
    },
    {
      "address": "0x7C8BaafA542c57fF9B2B90612bf8aB9E86e22C09",
      "txHash": "0x8ff1e9015018ec7f95b2af543cc39fea696318fdc6c9157a7bbb93fcf3bb71d0",
      "kind": "uups"
    },
    {
      "address": "0x0a17FabeA4633ce714F1Fa4a2dcA62C3bAc4758d",
      "txHash": "0x34a8012a1dbd01ca25ebb1c4a91bec53ad41bdfdd5c440892c3176a74b00289e",
      "kind": "transparent"
    },
    {
      "address": "0x95775fD3Afb1F4072794CA4ddA27F2444BCf8Ac3",
      "txHash": "0x8abffe5b0eb00a0e6809175562c2810566ac41db76b9e5b66f6f46643594f024",
      "kind": "uups"
    },
    {
      "address": "0xd9fEc8238711935D6c8d79Bef2B9546ef23FC046",
      "txHash": "0x197daaf21e3986a5aecb78a3132af8f69217587ee8d248206cc42c2cafc10826",
      "kind": "transparent"
    },
    {
      "address": "0xb932C8342106776E73E39D695F3FFC3A9624eCE0",
      "txHash": "0x1715328d39c74aeda384b96d079d22be5d1712560a28090afb168ecd418c4a3c",
      "kind": "uups"
    },
    {
      "address": "0xE8F7d98bE6722d42F29b50500B0E318EF2be4fc8",
      "txHash": "0x3bb07463c33b3fe5bf35782f9d07ef1fe9d4e77f364de2577d4cecbde7361285",
      "kind": "transparent"
    },
    {
      "address": "0x75c68e69775fA3E9DD38eA32E554f6BF259C1135",
      "txHash": "0xc071963e5cd1d1b9ff1d5fe78c26530538cb6a9434616505a2d8dab0fb2e1fea",
      "kind": "uups"
    },
    {
      "address": "0x572316aC11CB4bc5daf6BDae68f43EA3CCE3aE0e",
      "txHash": "0xb75a0863632250e61a93773f5e869369ea6d44ecafdd5382da354cd1d8a1bc1a",
      "kind": "transparent"
    },
    {
      "address": "0x8ac87219a0F5639BC01b470F87BA2b26356CB2B9",
      "txHash": "0xe0356e36e39ce047b608a5450e33f417f33ac74716bc23b6fd16d48259d5bb83",
      "kind": "uups"
    },
    {
      "address": "0x94fFA1C7330845646CE9128450F8e6c3B5e44F86",
      "txHash": "0x6f1b2583ce9694d75b1b832284e97d976da0306a1827174b7b8c1354bb2b38ed",
      "kind": "uups"
    },
    {
      "address": "0xCa1D199b6F53Af7387ac543Af8e8a34455BBe5E0",
      "txHash": "0xd0d9c87ea3e35c44ea75ecf0ba0d47c2fce5be9ba1dbeae693fd8f96ea015ae4",
      "kind": "transparent"
    },
    {
      "address": "0x1E3b98102e19D3a164d239BdD190913C2F02E756",
      "txHash": "0xe053e9dac0dc4e0cb7ca32793e4abdd8b4bde0072abc6de8147849cdded07bac",
      "kind": "uups"
    },
    {
      "address": "0x3fdc08D815cc4ED3B7F69Ee246716f2C8bCD6b07",
      "txHash": "0xb77d3706162125d8cebd025bdf008ba40aad11e5e7b36f16ecbef7b8caf75bd8",
      "kind": "transparent"
    },
    {
      "address": "0x0c626FC4A447b01554518550e30600136864640B",
      "txHash": "0xeed39cbaba9d8fe5a04044b87118f015ecc58b784f8752733104ffdecf04ff39",
      "kind": "uups"
    },
    {
      "address": "0xA21DDc1f17dF41589BC6A5209292AED2dF61Cc94",
      "txHash": "0xbd9cc549e786ebdf340a792fcc388067c4be1030243b08d2e85c704616a96efb",
      "kind": "transparent"
    },
    {
      "address": "0x4eaB29997D332A666c3C366217Ab177cF9A7C436",
      "txHash": "0x6582a77c9c6b10e4ab7252354c270bfebb3482ed53058014189b828274dec705",
      "kind": "uups"
    },
    {
      "address": "0x5Ffe31E4676D3466268e28a75E51d1eFa4298620",
      "txHash": "0x0b23453fb840e55f2e7ea5b6734d92145e073f1fd580eb53f533feb7e3b23870",
      "kind": "transparent"
    },
    {
      "address": "0xd710a67624Ad831683C86a48291c597adE30F787",
      "txHash": "0x8a3d517a8b26f68642698b2fc1cdc52f544f14527ee8687555703a968d8781b6",
      "kind": "uups"
    },
    {
      "address": "0xd30bF3219A0416602bE8D482E0396eF332b0494E",
      "txHash": "0x5eea16e009068a05849333ec2f0436fe751b5facefc089b46fbe7a06b06d6db0",
      "kind": "transparent"
    },
    {
      "address": "0x74Df809b1dfC099E8cdBc98f6a8D1F5c2C3f66f8",
      "txHash": "0xcdb7104f2ae517d34dd4cf31bee74396b56011489ce7fd6b7e4db654a8742ac1",
      "kind": "uups"
    },
    {
      "address": "0x3f9A1B67F3a3548e0ea5c9eaf43A402d12b6a273",
      "txHash": "0x8233fd99bf064b89bbe2f6ff19fd3bff998f0073e566c0031e0f671e851e09be",
      "kind": "transparent"
    },
    {
      "address": "0xA3307BF348ACC4bEDdd67CCA2f7F0c4349d347Db",
      "txHash": "0x3b1e5a802ac9ef8e6387f092715ff0a61b4c0144c74eba6dde6e65d4a41e44db",
      "kind": "uups"
    },
    {
      "address": "0x313F922BE1649cEc058EC0f076664500c78bdc0b",
      "txHash": "0x78129b7162afa7e009ef3a04c0b544651797aaafa4001f54106d1b011cd05c4c",
      "kind": "transparent"
    },
    {
      "address": "0x2538a10b7fFb1B78c890c870FC152b10be121f04",
      "txHash": "0x5b252a7fbd79d788f82ba8f44fcf2e5f80147734e2ee3bc63e729df0558e6efe",
      "kind": "uups"
    },
    {
      "address": "0x24432a08869578aAf4d1eadA12e1e78f171b1a2b",
      "txHash": "0xd3faa43a7e38e147ccf2c8348f4b782ec7e064a40b7b9a4d7469997b03c3e616",
      "kind": "transparent"
    },
    {
      "address": "0x9fE46736679d2D9a65F0992F2272dE9f3c7fa6e0",
      "txHash": "0xc7f3f90f11efb254808f772b0fda1fcc027cce923e6cff233fad87ccf5021734",
      "kind": "uups"
    },
    {
      "address": "0xCf7Ed3AccA5a467e9e704C703E8D87F634fB0Fc9",
      "txHash": "0x95ad9508b76ba3338f6c5460812e0eddef328e0b8234acf966ded0a589c3bcaa",
      "kind": "uups"
    },
    {
      "address": "0x5FC8d32690cc91D4c39d9d3abcBD16989F875707",
      "txHash": "0x4d309456d7badf28c1105c97e7501caa74c749380e981465060079548559e1de",
      "kind": "uups"
    },
    {
      "address": "0x2279B7A0a67DB372996a5FaB50D91eAA73d2eBe6",
      "txHash": "0x6b99e02ec43d5cce277c98642f60a0126b93bf5191ffdaea5597b6a0ceaec342",
      "kind": "uups"
    },
    {
      "address": "0x8A791620dd6260079BF849Dc5567aDC3F2FdC318",
      "txHash": "0x94ae0ba0b7f999fdd276972d50725a487cec257438cbd3176ac37c093ddb403b",
      "kind": "uups"
    },
    {
      "address": "0xB7f8BC63BbcaD18155201308C8f3540b07f84F5e",
      "txHash": "0xe6c81aeaf356e625553a2843c1049641e54944373d9173c9b3c267370cf95143",
      "kind": "uups"
    },
    {
      "address": "0x9A676e781A523b5d0C0e43731313A708CB607508",
      "txHash": "0x4832434dd9fef0a2d3d09fed8e0cb290d9cad5ede177cbeda4ed3898ddaa7bf7",
      "kind": "transparent"
    },
    {
      "address": "0x4ed7c70F96B99c776995fB64377f0d4aB3B0e1C1",
      "txHash": "0x1a2eb61e8353c9f15efebe38896105625ca5a2a6573f1af2d945a9f4681fff0d",
      "kind": "uups"
    },
    {
      "address": "0x322813Fd9A801c5507c9de605d63CEA4f2CE6c44",
      "txHash": "0x2f3244d04c0e9f3cbce750d6256ace4b865ada529f01d4ab9da7019fb693f8cf",
      "kind": "transparent"
    },
    {
      "address": "0x9E545E3C0baAB3E08CdfD552C960A1050f373042",
      "txHash": "0x9fac10ccd117d2510a1147d2e0fa0320756c90513038d5b789ce9bad1a81b755",
      "kind": "uups"
    },
    {
      "address": "0xa82fF9aFd8f496c3d6ac40E2a0F282E47488CFc9",
      "txHash": "0x17a2717e8c8874885f1c735cadd752f9fd8ac37ff839b9c3249855a7a22957e7",
      "kind": "transparent"
    },
    {
      "address": "0x0E801D84Fa97b50751Dbf25036d067dCf18858bF",
      "txHash": "0x335f7eeabcf0a3d8b17bfc316fc46c439426f0541253b7dc27487989afa7c719",
      "kind": "uups"
    },
    {
      "address": "0x8f86403A4DE0BB5791fa46B8e795C547942fE4Cf",
      "txHash": "0x8c753a8e9adccbc16f824409a102ab27889427a4c3b7dc4d7079219a8e02f758",
      "kind": "transparent"
    },
    {
      "address": "0xCD8a1C3ba11CF5ECfa6267617243239504a98d90",
      "txHash": "0xbe753ad6d4aa911e9ce154a6596a1421c4bc0e156636fc223e265ade2dcd6b5a",
      "kind": "uups"
    },
    {
      "address": "0x82e01223d51Eb87e16A03E24687EDF0F294da6f1",
      "txHash": "0x43a1047989603fecc525b283a1297207d9616361c95dc6ac2e9a107502ecaa85",
      "kind": "transparent"
    },
    {
      "address": "0x162A433068F51e18b7d13932F27e66a3f99E6890",
      "txHash": "0x1b4d3ae7d1b619eee0ac07e38e34d7d4e4172d8b52816e14f437b4bf92c932ce",
      "kind": "uups"
    },
    {
      "address": "0x5081a39b8A5f0E35a8D959395a630b68B74Dd30f",
      "txHash": "0x20fe42e9f3b3616896ff133947f38ba5d01645d351fcc3e4b3eb6b46b09839ab",
      "kind": "uups"
    },
    {
      "address": "0x1fA02b2d6A771842690194Cf62D91bdd92BfE28d",
      "txHash": "0x85e3149c8c54090a5cdf7ef014b11d13ea1f73477f6cc4734b8f003940eb174e",
      "kind": "transparent"
    },
    {
      "address": "0x21dF544947ba3E8b3c32561399E88B52Dc8b2823",
      "txHash": "0xb9a9479ba8317aa34c79a3b0d976b57d5e3613792ea56d7d516787f0d85c5627",
      "kind": "uups"
    },
    {
      "address": "0x2E2Ed0Cfd3AD2f1d34481277b3204d807Ca2F8c2",
      "txHash": "0x3bc2b76e8c0a076c8b607b662c675ea02818ea92b2bfa0b923abcd289f2713ce",
      "kind": "transparent"
    },
    {
      "address": "0x36b58F5C1969B7b6591D752ea6F5486D069010AB",
      "txHash": "0x68554ab4bc5541d5bbe4556d5b377468bfa5f01af8477d33dfb6df487d68d5a5",
      "kind": "uups"
    },
    {
      "address": "0x8198f5d8F8CfFE8f9C413d98a0A55aEB8ab9FbB7",
      "txHash": "0x34b03ad31743d90a10c36c60674b51e31b006078de1dd1d95065aa8b2beb3a04",
      "kind": "transparent"
    },
    {
      "address": "0x4EE6eCAD1c2Dae9f525404De8555724e3c35d07B",
      "txHash": "0xe21ce037948960bf05120e2b5e4d69e2c0ee0684852ce68dfad217025b887c11",
      "kind": "uups"
    },
    {
      "address": "0xBEc49fA140aCaA83533fB00A2BB19bDdd0290f25",
      "txHash": "0x960ff01470e951ddc22378becebfba932b0f7d8cb70367e5b2334830bcfb2c8b",
      "kind": "transparent"
    },
    {
      "address": "0x2B0d36FACD61B71CC05ab8F3D2355ec3631C0dd5",
      "txHash": "0x48bc91416111d1baf22ef98d4df8f49406f9beebf47e598815d389a612818bbc",
      "kind": "uups"
    },
    {
      "address": "0x46b142DD1E924FAb83eCc3c08e4D46E82f005e0E",
      "txHash": "0x559037986cec730c6d023af81dd551fa63c42aaf46216dfabb48c0f76c4580ae",
      "kind": "uups"
    },
    {
      "address": "0xC9a43158891282A2B1475592D5719c001986Aaec",
      "txHash": "0x11117cc565d84d6d9f8b554ccc2c1c06dbcc785b5407de538e907082c68e1209",
      "kind": "transparent"
    },
    {
      "address": "0xe7f1725E7734CE288F8367e1Bb143E90bb3F0512",
      "txHash": "0x070fe44389116743a1bab56df27755f14ccc4062f227e456ea803d331d048596",
      "kind": "uups"
    },
    {
      "address": "0xDc64a140Aa3E981100a9becA4E685f962f0cF6C9",
      "txHash": "0x5246fc1bcdf15d098f12aca0325fbe228357ab8f72a37b37ac6212f0f1b348ea",
      "kind": "uups"
    },
    {
      "address": "0xa513E6E4b8f2a923D98304ec87F64353C4D5C853",
      "txHash": "0xcb6745e951977d20aadfef6c6106ef4daebb64ad73ca01045050db92dbc2532d",
      "kind": "transparent"
    }
  ],
  "impls": {
    "ec38f213a4d0a06a4616b2f359d10de7f8ad54eb8d1eaa86c3b55ec2b05c231e": {
      "address": "0xB7f8BC63BbcaD18155201308C8f3540b07f84F5e",
      "txHash": "0x08eee0e50d395ea677cb72602df7dd0c1371001322621776673f5e5655586160",
      "layout": {
        "storage": [
          {
            "label": "_initialized",
            "offset": 0,
            "slot": "0",
            "type": "t_bool",
            "contract": "Initializable",
            "src": "@openzeppelin/contracts-upgradeable/proxy/utils/Initializable.sol:39"
          },
          {
            "label": "_initializing",
            "offset": 1,
            "slot": "0",
            "type": "t_bool",
            "contract": "Initializable",
            "src": "@openzeppelin/contracts-upgradeable/proxy/utils/Initializable.sol:44"
          },
          {
            "label": "__gap",
            "offset": 0,
            "slot": "1",
            "type": "t_array(t_uint256)50_storage",
            "contract": "ContextUpgradeable",
            "src": "@openzeppelin/contracts-upgradeable/utils/ContextUpgradeable.sol:36"
          },
          {
            "label": "_owner",
            "offset": 0,
            "slot": "51",
            "type": "t_address",
            "contract": "OwnableUpgradeable",
            "src": "@openzeppelin/contracts-upgradeable/access/OwnableUpgradeable.sol:22"
          },
          {
            "label": "__gap",
            "offset": 0,
            "slot": "52",
            "type": "t_array(t_uint256)49_storage",
            "contract": "OwnableUpgradeable",
            "src": "@openzeppelin/contracts-upgradeable/access/OwnableUpgradeable.sol:87"
          },
          {
            "label": "betTokenContractAddress",
            "offset": 0,
            "slot": "101",
            "type": "t_address",
            "contract": "GameFactoryUpgradeable",
            "src": "contracts/GameFactory.sol:45"
          },
          {
            "label": "calculatorContractAddress",
            "offset": 0,
            "slot": "102",
            "type": "t_address",
            "contract": "GameFactoryUpgradeable",
            "src": "contracts/GameFactory.sol:47"
          },
          {
            "label": "_games",
            "offset": 0,
            "slot": "103",
            "type": "t_array(t_contract(Game)3499)dyn_storage",
            "contract": "GameFactoryUpgradeable",
            "src": "contracts/GameFactory.sol:49"
          },
          {
            "label": "commission",
            "offset": 0,
            "slot": "104",
            "type": "t_uint256",
            "contract": "GameFactoryUpgradeable",
            "src": "contracts/GameFactory.sol:53"
          },
          {
            "label": "gameImplementation",
            "offset": 0,
            "slot": "105",
            "type": "t_address",
            "contract": "GameFactoryUpgradeable",
            "src": "contracts/GameFactory.sol:55"
          }
        ],
        "types": {
          "t_address": {
            "label": "address",
            "numberOfBytes": "20"
          },
          "t_array(t_contract(Game)3499)dyn_storage": {
            "label": "contract Game[]",
            "numberOfBytes": "32"
          },
          "t_array(t_uint256)49_storage": {
            "label": "uint256[49]",
            "numberOfBytes": "1568"
          },
          "t_array(t_uint256)50_storage": {
            "label": "uint256[50]",
            "numberOfBytes": "1600"
          },
          "t_bool": {
            "label": "bool",
            "numberOfBytes": "1"
          },
          "t_contract(Game)3499": {
            "label": "contract Game",
            "numberOfBytes": "20"
          },
          "t_uint256": {
            "label": "uint256",
            "numberOfBytes": "32"
          }
        }
      }
    },
    "e0f8963906f5844647a93034909e1a7bd1868a78cb25f0d1a7eec41d73d152c4": {
      "address": "0x1613beB3B2C4f22Ee086B2b38C1476A3cE7f78E8",
      "txHash": "0x53abbe44127c81ca224f5c1423efceff6e73d7f4462c4ac7ca21aaf9222b8ea1",
      "layout": {
        "storage": [
          {
            "label": "_initialized",
            "offset": 0,
            "slot": "0",
            "type": "t_bool",
            "contract": "Initializable",
            "src": "@openzeppelin/contracts-upgradeable/proxy/utils/Initializable.sol:39"
          },
          {
            "label": "_initializing",
            "offset": 1,
            "slot": "0",
            "type": "t_bool",
            "contract": "Initializable",
            "src": "@openzeppelin/contracts-upgradeable/proxy/utils/Initializable.sol:44"
          },
          {
            "label": "__gap",
            "offset": 0,
            "slot": "1",
            "type": "t_array(t_uint256)50_storage",
            "contract": "ContextUpgradeable",
            "src": "@openzeppelin/contracts-upgradeable/utils/ContextUpgradeable.sol:36"
          },
          {
            "label": "_owner",
            "offset": 0,
            "slot": "51",
            "type": "t_address",
            "contract": "OwnableUpgradeable",
            "src": "@openzeppelin/contracts-upgradeable/access/OwnableUpgradeable.sol:22"
          },
          {
            "label": "__gap",
            "offset": 0,
            "slot": "52",
            "type": "t_array(t_uint256)49_storage",
            "contract": "OwnableUpgradeable",
            "src": "@openzeppelin/contracts-upgradeable/access/OwnableUpgradeable.sol:87"
          },
          {
            "label": "betTokenContractAddress",
            "offset": 0,
            "slot": "101",
            "type": "t_address",
            "contract": "GameFactoryUpgradeable",
            "src": "contracts/GameFactory.sol:45"
          },
          {
            "label": "calculatorContractAddress",
            "offset": 0,
            "slot": "102",
            "type": "t_address",
            "contract": "GameFactoryUpgradeable",
            "src": "contracts/GameFactory.sol:47"
          },
          {
            "label": "_games",
            "offset": 0,
            "slot": "103",
            "type": "t_array(t_contract(Game)3554)dyn_storage",
            "contract": "GameFactoryUpgradeable",
            "src": "contracts/GameFactory.sol:49"
          },
          {
            "label": "commission",
            "offset": 0,
            "slot": "104",
            "type": "t_uint256",
            "contract": "GameFactoryUpgradeable",
            "src": "contracts/GameFactory.sol:53"
          },
          {
            "label": "gameImplementation",
            "offset": 0,
            "slot": "105",
            "type": "t_address",
            "contract": "GameFactoryUpgradeable",
            "src": "contracts/GameFactory.sol:55"
          }
        ],
        "types": {
          "t_address": {
            "label": "address",
            "numberOfBytes": "20"
          },
          "t_array(t_contract(Game)3554)dyn_storage": {
            "label": "contract Game[]",
            "numberOfBytes": "32"
          },
          "t_array(t_uint256)49_storage": {
            "label": "uint256[49]",
            "numberOfBytes": "1568"
          },
          "t_array(t_uint256)50_storage": {
            "label": "uint256[50]",
            "numberOfBytes": "1600"
          },
          "t_bool": {
            "label": "bool",
            "numberOfBytes": "1"
          },
          "t_contract(Game)3554": {
            "label": "contract Game",
            "numberOfBytes": "20"
          },
          "t_uint256": {
            "label": "uint256",
            "numberOfBytes": "32"
          }
        }
      }
    },
    "ad86cfaa6b7cc61ac8f6a41f4af30dfb1ffe5d80b0618807499cc875f04ab452": {
      "address": "0xB0D4afd8879eD9F52b28595d31B441D079B2Ca07",
      "txHash": "0x28bcac07a5327032e592cbd827cebba7e9a38cc25c3e1da375671149f2d1e309",
      "layout": {
        "storage": [
          {
            "label": "_initialized",
            "offset": 0,
            "slot": "0",
            "type": "t_bool",
            "contract": "Initializable",
            "src": "@openzeppelin/contracts-upgradeable/proxy/utils/Initializable.sol:39"
          },
          {
            "label": "_initializing",
            "offset": 1,
            "slot": "0",
            "type": "t_bool",
            "contract": "Initializable",
            "src": "@openzeppelin/contracts-upgradeable/proxy/utils/Initializable.sol:44"
          },
          {
            "label": "__gap",
            "offset": 0,
            "slot": "1",
            "type": "t_array(t_uint256)50_storage",
            "contract": "ContextUpgradeable",
            "src": "@openzeppelin/contracts-upgradeable/utils/ContextUpgradeable.sol:36"
          },
          {
            "label": "_owner",
            "offset": 0,
            "slot": "51",
            "type": "t_address",
            "contract": "OwnableUpgradeable",
            "src": "@openzeppelin/contracts-upgradeable/access/OwnableUpgradeable.sol:22"
          },
          {
            "label": "__gap",
            "offset": 0,
            "slot": "52",
            "type": "t_array(t_uint256)49_storage",
            "contract": "OwnableUpgradeable",
            "src": "@openzeppelin/contracts-upgradeable/access/OwnableUpgradeable.sol:87"
          },
          {
            "label": "betTokenContractAddress",
            "offset": 0,
            "slot": "101",
            "type": "t_address",
            "contract": "GameFactoryUpgradeable",
            "src": "contracts/GameFactory.sol:45"
          },
          {
            "label": "calculatorContractAddress",
            "offset": 0,
            "slot": "102",
            "type": "t_address",
            "contract": "GameFactoryUpgradeable",
            "src": "contracts/GameFactory.sol:47"
          },
          {
            "label": "_games",
            "offset": 0,
            "slot": "103",
            "type": "t_array(t_contract(Game)3554)dyn_storage",
            "contract": "GameFactoryUpgradeable",
            "src": "contracts/GameFactory.sol:49"
          },
          {
            "label": "commission",
            "offset": 0,
            "slot": "104",
            "type": "t_uint256",
            "contract": "GameFactoryUpgradeable",
            "src": "contracts/GameFactory.sol:53"
          },
          {
            "label": "gameImplementation",
            "offset": 0,
            "slot": "105",
            "type": "t_address",
            "contract": "GameFactoryUpgradeable",
            "src": "contracts/GameFactory.sol:55"
          }
        ],
        "types": {
          "t_address": {
            "label": "address",
            "numberOfBytes": "20"
          },
          "t_array(t_contract(Game)3554)dyn_storage": {
            "label": "contract Game[]",
            "numberOfBytes": "32"
          },
          "t_array(t_uint256)49_storage": {
            "label": "uint256[49]",
            "numberOfBytes": "1568"
          },
          "t_array(t_uint256)50_storage": {
            "label": "uint256[50]",
            "numberOfBytes": "1600"
          },
          "t_bool": {
            "label": "bool",
            "numberOfBytes": "1"
          },
          "t_contract(Game)3554": {
            "label": "contract Game",
            "numberOfBytes": "20"
          },
          "t_uint256": {
            "label": "uint256",
            "numberOfBytes": "32"
          }
        }
      }
    },
    "fedfa7b5c85a778fe41c534611f48c4362cb79e2447fc47cf189f1d629564b4b": {
      "address": "0x5FbDB2315678afecb367f032d93F642f64180aa3",
      "txHash": "0x0ea2f1b8867295ef77f2bacdd45fab5cf2b026c6d378072fad280a2f4067d046",
      "layout": {
        "storage": [
          {
            "label": "_initialized",
            "offset": 0,
            "slot": "0",
            "type": "t_bool",
            "contract": "Initializable",
            "src": "@openzeppelin/contracts-upgradeable/proxy/utils/Initializable.sol:39"
          },
          {
            "label": "_initializing",
            "offset": 1,
            "slot": "0",
            "type": "t_bool",
            "contract": "Initializable",
            "src": "@openzeppelin/contracts-upgradeable/proxy/utils/Initializable.sol:44"
          },
          {
            "label": "__gap",
            "offset": 0,
            "slot": "1",
            "type": "t_array(t_uint256)50_storage",
            "contract": "ContextUpgradeable",
            "src": "@openzeppelin/contracts-upgradeable/utils/ContextUpgradeable.sol:36"
          },
          {
            "label": "_owner",
            "offset": 0,
            "slot": "51",
            "type": "t_address",
            "contract": "OwnableUpgradeable",
            "src": "@openzeppelin/contracts-upgradeable/access/OwnableUpgradeable.sol:22"
          },
          {
            "label": "__gap",
            "offset": 0,
            "slot": "52",
            "type": "t_array(t_uint256)49_storage",
            "contract": "OwnableUpgradeable",
            "src": "@openzeppelin/contracts-upgradeable/access/OwnableUpgradeable.sol:87"
          },
          {
            "label": "__gap",
            "offset": 0,
            "slot": "101",
            "type": "t_array(t_uint256)50_storage",
            "contract": "ERC1967UpgradeUpgradeable",
            "src": "@openzeppelin/contracts-upgradeable/proxy/ERC1967/ERC1967UpgradeUpgradeable.sol:211"
          },
          {
            "label": "__gap",
            "offset": 0,
            "slot": "151",
            "type": "t_array(t_uint256)50_storage",
            "contract": "UUPSUpgradeable",
            "src": "@openzeppelin/contracts-upgradeable/proxy/utils/UUPSUpgradeable.sol:107"
          }
        ],
        "types": {
          "t_address": {
            "label": "address",
            "numberOfBytes": "20"
          },
          "t_array(t_uint256)49_storage": {
            "label": "uint256[49]",
            "numberOfBytes": "1568"
          },
          "t_array(t_uint256)50_storage": {
            "label": "uint256[50]",
            "numberOfBytes": "1600"
          },
          "t_bool": {
            "label": "bool",
            "numberOfBytes": "1"
          },
          "t_uint256": {
            "label": "uint256",
            "numberOfBytes": "32"
          }
        }
      }
    },
    "d39531c72fc0d805609deb5f0154b2b3e01a36d1f7841c759bd2966ee44bc777": {
      "address": "0x5FC8d32690cc91D4c39d9d3abcBD16989F875707",
      "txHash": "0x1dad8933877beeb9185b576f5e396152ce3da2b4bfdfda5d7678a2e5e884cfc8",
      "layout": {
        "storage": [
          {
            "label": "_initialized",
            "offset": 0,
            "slot": "0",
            "type": "t_bool",
            "contract": "Initializable",
            "src": "@openzeppelin/contracts-upgradeable/proxy/utils/Initializable.sol:39"
          },
          {
            "label": "_initializing",
            "offset": 1,
            "slot": "0",
            "type": "t_bool",
            "contract": "Initializable",
            "src": "@openzeppelin/contracts-upgradeable/proxy/utils/Initializable.sol:44"
          },
          {
            "label": "__gap",
            "offset": 0,
            "slot": "1",
            "type": "t_array(t_uint256)50_storage",
            "contract": "ContextUpgradeable",
            "src": "@openzeppelin/contracts-upgradeable/utils/ContextUpgradeable.sol:36"
          },
          {
            "label": "_owner",
            "offset": 0,
            "slot": "51",
            "type": "t_address",
            "contract": "OwnableUpgradeable",
            "src": "@openzeppelin/contracts-upgradeable/access/OwnableUpgradeable.sol:22"
          },
          {
            "label": "__gap",
            "offset": 0,
            "slot": "52",
            "type": "t_array(t_uint256)49_storage",
            "contract": "OwnableUpgradeable",
            "src": "@openzeppelin/contracts-upgradeable/access/OwnableUpgradeable.sol:87"
          },
          {
            "label": "betTokenContractAddress",
            "offset": 0,
            "slot": "101",
            "type": "t_address",
            "contract": "GameFactoryUpgradeable",
            "src": "contracts/GameFactory.sol:45"
          },
          {
            "label": "calculatorContractAddress",
            "offset": 0,
            "slot": "102",
            "type": "t_address",
            "contract": "GameFactoryUpgradeable",
            "src": "contracts/GameFactory.sol:47"
          },
          {
            "label": "_games",
            "offset": 0,
            "slot": "103",
            "type": "t_array(t_contract(Game)3634)dyn_storage",
            "contract": "GameFactoryUpgradeable",
            "src": "contracts/GameFactory.sol:49"
          },
          {
            "label": "commission",
            "offset": 0,
            "slot": "104",
            "type": "t_uint256",
            "contract": "GameFactoryUpgradeable",
            "src": "contracts/GameFactory.sol:53"
          },
          {
            "label": "gameImplementation",
            "offset": 0,
            "slot": "105",
            "type": "t_address",
            "contract": "GameFactoryUpgradeable",
            "src": "contracts/GameFactory.sol:55"
          }
        ],
        "types": {
          "t_address": {
            "label": "address",
            "numberOfBytes": "20"
          },
          "t_array(t_contract(Game)3634)dyn_storage": {
            "label": "contract Game[]",
            "numberOfBytes": "32"
          },
          "t_array(t_uint256)49_storage": {
            "label": "uint256[49]",
            "numberOfBytes": "1568"
          },
          "t_array(t_uint256)50_storage": {
            "label": "uint256[50]",
            "numberOfBytes": "1600"
          },
          "t_bool": {
            "label": "bool",
            "numberOfBytes": "1"
          },
          "t_contract(Game)3634": {
            "label": "contract Game",
            "numberOfBytes": "20"
          },
          "t_uint256": {
            "label": "uint256",
            "numberOfBytes": "32"
          }
        }
      }
    },
    "503299c1dd21fc7bcbbb7ea2a17b648a618be8351d4693e6ba9ef6dc2bd535c2": {
      "address": "0xCf7Ed3AccA5a467e9e704C703E8D87F634fB0Fc9",
      "txHash": "0x187c3bf8d405cdf76a8f6d812085565f2acbb66b4c5176db3090fc51d6c60dcb",
      "layout": {
        "storage": [
          {
            "label": "_initialized",
            "offset": 0,
            "slot": "0",
            "type": "t_bool",
            "contract": "Initializable",
            "src": "@openzeppelin/contracts-upgradeable/proxy/utils/Initializable.sol:39"
          },
          {
            "label": "_initializing",
            "offset": 1,
            "slot": "0",
            "type": "t_bool",
            "contract": "Initializable",
            "src": "@openzeppelin/contracts-upgradeable/proxy/utils/Initializable.sol:44"
          },
          {
            "label": "__gap",
            "offset": 0,
            "slot": "1",
            "type": "t_array(t_uint256)50_storage",
            "contract": "ContextUpgradeable",
            "src": "@openzeppelin/contracts-upgradeable/utils/ContextUpgradeable.sol:36"
          },
          {
            "label": "_balances",
            "offset": 0,
            "slot": "51",
            "type": "t_mapping(t_address,t_uint256)",
            "contract": "ERC20Upgradeable",
            "src": "@openzeppelin/contracts-upgradeable/token/ERC20/ERC20Upgradeable.sol:37"
          },
          {
            "label": "_allowances",
            "offset": 0,
            "slot": "52",
            "type": "t_mapping(t_address,t_mapping(t_address,t_uint256))",
            "contract": "ERC20Upgradeable",
            "src": "@openzeppelin/contracts-upgradeable/token/ERC20/ERC20Upgradeable.sol:39"
          },
          {
            "label": "_totalSupply",
            "offset": 0,
            "slot": "53",
            "type": "t_uint256",
            "contract": "ERC20Upgradeable",
            "src": "@openzeppelin/contracts-upgradeable/token/ERC20/ERC20Upgradeable.sol:41"
          },
          {
            "label": "_name",
            "offset": 0,
            "slot": "54",
            "type": "t_string_storage",
            "contract": "ERC20Upgradeable",
            "src": "@openzeppelin/contracts-upgradeable/token/ERC20/ERC20Upgradeable.sol:43"
          },
          {
            "label": "_symbol",
            "offset": 0,
            "slot": "55",
            "type": "t_string_storage",
            "contract": "ERC20Upgradeable",
            "src": "@openzeppelin/contracts-upgradeable/token/ERC20/ERC20Upgradeable.sol:44"
          },
          {
            "label": "__gap",
            "offset": 0,
            "slot": "56",
            "type": "t_array(t_uint256)45_storage",
            "contract": "ERC20Upgradeable",
            "src": "@openzeppelin/contracts-upgradeable/token/ERC20/ERC20Upgradeable.sol:394"
          },
          {
            "label": "_owner",
            "offset": 0,
            "slot": "101",
            "type": "t_address",
            "contract": "OwnableUpgradeable",
            "src": "@openzeppelin/contracts-upgradeable/access/OwnableUpgradeable.sol:22"
          },
          {
            "label": "__gap",
            "offset": 0,
            "slot": "102",
            "type": "t_array(t_uint256)49_storage",
            "contract": "OwnableUpgradeable",
            "src": "@openzeppelin/contracts-upgradeable/access/OwnableUpgradeable.sol:87"
          },
          {
            "label": "__gap",
            "offset": 0,
            "slot": "151",
            "type": "t_array(t_uint256)50_storage",
            "contract": "ERC1967UpgradeUpgradeable",
            "src": "@openzeppelin/contracts-upgradeable/proxy/ERC1967/ERC1967UpgradeUpgradeable.sol:211"
          },
          {
            "label": "__gap",
            "offset": 0,
            "slot": "201",
            "type": "t_array(t_uint256)50_storage",
            "contract": "UUPSUpgradeable",
            "src": "@openzeppelin/contracts-upgradeable/proxy/utils/UUPSUpgradeable.sol:107"
          },
          {
            "label": "_status",
            "offset": 0,
            "slot": "251",
            "type": "t_uint256",
            "contract": "ReentrancyGuardUpgradeable",
            "src": "@openzeppelin/contracts-upgradeable/security/ReentrancyGuardUpgradeable.sol:38"
          },
          {
            "label": "__gap",
            "offset": 0,
            "slot": "252",
            "type": "t_array(t_uint256)49_storage",
            "contract": "ReentrancyGuardUpgradeable",
            "src": "@openzeppelin/contracts-upgradeable/security/ReentrancyGuardUpgradeable.sol:74"
          }
        ],
        "types": {
          "t_address": {
            "label": "address",
            "numberOfBytes": "20"
          },
          "t_array(t_uint256)45_storage": {
            "label": "uint256[45]",
            "numberOfBytes": "1440"
          },
          "t_array(t_uint256)49_storage": {
            "label": "uint256[49]",
            "numberOfBytes": "1568"
          },
          "t_array(t_uint256)50_storage": {
            "label": "uint256[50]",
            "numberOfBytes": "1600"
          },
          "t_bool": {
            "label": "bool",
            "numberOfBytes": "1"
          },
          "t_mapping(t_address,t_mapping(t_address,t_uint256))": {
            "label": "mapping(address => mapping(address => uint256))",
            "numberOfBytes": "32"
          },
          "t_mapping(t_address,t_uint256)": {
            "label": "mapping(address => uint256)",
            "numberOfBytes": "32"
          },
          "t_string_storage": {
            "label": "string",
            "numberOfBytes": "32"
          },
          "t_uint256": {
            "label": "uint256",
            "numberOfBytes": "32"
          }
        }
      }
    }
  }
}
